…
ridge_plot <- ny_noaa_clean %>%
  filter(snowfall < 100, snowfall > 0) %>%
  ggplot(aes(x = snowfall, y = as.factor(year))) + 
  geom_density_ridges() +
  labs(title = "Snowfall Distribution by Year")

#combine plots
combined_plot <- hex_plot + ridge_plot
head(combined_plot)
```

    ## $data
    ## # A tibble: 101,096 × 10
    ##    id           year month   day  prcp  snow  snwd  tmax  tmin snowfall
    ##    <chr>       <int> <int> <int> <int> <int> <int> <dbl> <dbl>    <dbl>
    ##  1 USC00300023  1981     1    30    53    51    51   -56  -139       51
    ##  2 USC00300023  1982     2    19    30     3    51    33   -61        3
    ##  3 USC00300023  1982     3    11    33    51   102    56   -39       51
    ##  4 USC00300023  1982     3    13    25    25   127   106    -6       25
    ##  5 USC00300023  1982    12    20    NA    25    25    22   -33       25
    ##  6 USC00300023  1982    12    23    NA    38   102    17   -33       38
    ##  7 USC00300023  1983     1    14    NA    64    76    33   -22       64
    ##  8 USC00300023  1983     1    15    NA    76   152     0   -56       76
    ##  9 USC00300023  1983     2    24    NA    76    76    44   -33       76
    ## 10 USC00300023  1983     2    25    NA    13   102   -11   -94       13
    ## # ℹ 101,086 more rows
    ## 
    ## $layers
    ## $layers[[1]]
    ## geom_density_ridges: na.rm = FALSE, panel_scaling = TRUE
    ## stat_density_ridges: na.rm = FALSE
    ## position_points_sina
…
